{

    "userId" : "user123",
    "firstName" : "Ems",
    "lastName": "Garcia",
    "email":"Ems_G@gmail.com",
    "password":"user123",
    "isAdmin": false ,
    "mobileNumber":"095864864844",
    
    
    },
     {
    
        "userId" : "user456",
        "firstName" : "Hannah",
        "lastName": "Montana",
        "email":"Hanna@gmail.com",
        "password":"user456",
        "isAdmin": false ,
        "mobileNumber":"095864864944",
       
        
        }